Harry Potter 1-3 EDA
…
var_explained <- var_explained %>%
  transpose_df %>%
  dplyr::rename(Component=rowname, var_ratio='1') %>%
  arrange(-var_ratio) %>%
  mutate(cum_sum = cumsum(var_ratio))

var_explained %>% arrange()

## # A tibble: 2,545 x 3
##    Component var_ratio cum_sum
##    <chr>         <dbl>   <dbl>
##  1 PC1         0.0115   0.0115
##  2 PC2         0.0103   0.0219
##  3 PC3         0.00975  0.0316
##  4 PC4         0.00961  0.0412
##  5 PC5         0.00954  0.0508
##  6 PC6         0.00916  0.0599
##  7 PC7         0.00876  0.0687
##  8 PC8         0.00784  0.0765
##  9 PC9         0.00774  0.0843
## 10 PC10        0.00735  0.0916
## # ... with 2,535 more rows
…
