Harry Potter 1-3 EDA
…
Char_Dial <- as.tibble(table(Script$Character), .name_repair=~c("Character","n"))

Char_Dial

## # A tibble: 84 x 2
##    Character           n
##    <chr>           <int>
##  1 Aragog             20
##  2 Aunt Marge         37
##  3 Aunt Petunia       55
##  4 Bem                 8
##  5 Colin               3
##  6 Cornelius Fudge    65
##  7 Cornish Pixies      1
##  8 Crabbe              3
##  9 Crowd               6
## 10 Dean                5
## # ... with 74 more rows
…
var_explained <- var_explained %>%
  transpose_df %>%
  dplyr::rename(Component=rowname, var_ratio='1') %>%
  arrange(-var_ratio) %>%
  mutate(cum_sum = cumsum(var_ratio))

var_explained %>% arrange()

## # A tibble: 2,545 x 3
##    Component var_ratio cum_sum
##    <chr>         <dbl>   <dbl>
##  1 Comp.1      0.0115   0.0115
##  2 Comp.2      0.0103   0.0219
##  3 Comp.3      0.00975  0.0316
##  4 Comp.4      0.00961  0.0412
##  5 Comp.5      0.00954  0.0508
##  6 Comp.6      0.00916  0.0599
##  7 Comp.7      0.00876  0.0687
##  8 Comp.8      0.00784  0.0765
##  9 Comp.9      0.00774  0.0843
## 10 Comp.10     0.00735  0.0916
## # ... with 2,535 more rows

Lets select top components that explain 90% of variance:

X_pca <- as_tibble(predict(pca))
rel_feats <- unique(filter(var_explained, cum_sum<=0.95)$Component)
X_pca_mini <- X_pca[, rel_feats]
X_pca_mini

## # A tibble: 3,175 x 957
##    Comp.1  Comp.2  Comp.3   Comp.4  Comp.5   Comp.6    Comp.7 Comp.8 Comp.9
##     <dbl>   <dbl>   <dbl>    <dbl>   <dbl>    <dbl>     <dbl>  <dbl>  <dbl>
##  1 0.0178  0.0384  0.0442  0.0113   0.0353  0.0436   0.00359  0.0138 0.0318
##  2 0.0133  0.0574 -0.0246 -0.0251  -0.0756  0.0274  -0.0127   0.0632 0.0127
##  3 0.0202  0.0283  0.0429  0.0129   0.0339  0.0399  -0.00206  0.0238 0.0447
##  4 0.0272 -0.0452  0.0132  0.00933  0.0100  0.0277  -0.00127  0.0233 0.0357
##  5 0.0158  0.0321  0.0405  0.0121   0.0320  0.0386   0.00121  0.0155 0.0323
##  6 0.0214  0.0391  0.0443  0.00383  0.0345  0.0494   0.00745  0.0126 0.0365
##  7 0.0107  0.0302  0.0301  0.00399  0.0234  0.0351   0.00118  0.0244 0.0400
##  8 0.0194  0.0298  0.0397  0.0147   0.0308  0.0386   0.000758 0.0208 0.0416
##  9 0.0378 -0.0271  0.0532  0.00286  0.0496 -0.00112 -0.0499   0.0705 0.109 
## 10 0.0256  0.0635  0.0516  0.0122   0.0433  0.0727  -0.00134  0.0528 0.0847
## # ... with 3,165 more rows, and 948 more variables: Comp.10 <dbl>,
## #   Comp.11 <dbl>, Comp.12 <dbl>, Comp.13 <dbl>, Comp.14 <dbl>, Comp.15 <dbl>,
## #   Comp.16 <dbl>, Comp.17 <dbl>, Comp.18 <dbl>, Comp.19 <dbl>, Comp.20 <dbl>,
## #   Comp.21 <dbl>, Comp.22 <dbl>, Comp.23 <dbl>, Comp.24 <dbl>, Comp.25 <dbl>,
## #   Comp.26 <dbl>, Comp.27 <dbl>, Comp.28 <dbl>, Comp.29 <dbl>, Comp.30 <dbl>,
## #   Comp.31 <dbl>, Comp.32 <dbl>, Comp.33 <dbl>, Comp.34 <dbl>, Comp.35 <dbl>,
## #   Comp.36 <dbl>, Comp.37 <dbl>, Comp.38 <dbl>, Comp.39 <dbl>, Comp.40 <dbl>,
## #   Comp.41 <dbl>, Comp.42 <dbl>, Comp.43 <dbl>, Comp.44 <dbl>, Comp.45 <dbl>,
## #   Comp.46 <dbl>, Comp.47 <dbl>, Comp.48 <dbl>, Comp.49 <dbl>, Comp.50 <dbl>,
…
